-------------------------------------------------------------------------------
Test set: br.com.restassuredapitesting.runners.Acceptance
-------------------------------------------------------------------------------
Tests run: 2, Failures: 0, Errors: 0, Skipped: 0, Time elapsed: 12.012 s - in br.com.restassuredapitesting.runners.Acceptance
